<svg width="50" height="50" viewBox="0 0 50 50" fill="none" xmlns="http://www.w3.org/2000/svg">
<circle cx="25" cy="25" r="25" fill="#FF0000"/>
<path d="M35.1425 18.3735C34.3484 17.3979 32.8822 17 30.0821 17H19.9177C17.0535 17 15.5625 17.4236 14.7713 18.4622C14 19.4749 14 20.967 14 23.032V26.968C14 30.9687 14.9152 33 19.9177 33H30.0821C32.5104 33 33.8559 32.6489 34.7264 31.7879C35.6191 30.9051 36 29.4636 36 26.968V23.032C36 20.8542 35.9403 19.3534 35.1425 18.3735ZM28.1241 25.5434L23.5085 28.0363C23.4053 28.092 23.2924 28.1197 23.1797 28.1197C23.0521 28.1197 22.9248 28.0842 22.8121 28.0136C22.5997 27.8807 22.4701 27.6428 22.4701 27.3863V22.4166C22.4701 22.1605 22.5994 21.9229 22.8113 21.7898C23.0233 21.6568 23.2869 21.6477 23.5068 21.7658L28.1224 24.2426C28.3573 24.3686 28.5047 24.6191 28.5051 24.8924C28.5054 25.166 28.3585 25.4169 28.1241 25.5434Z" fill="white"/>
</svg>
