<svg width="132" height="17" viewBox="0 0 132 17" fill="none" xmlns="http://www.w3.org/2000/svg">
<path d="M12.68 2.984C11.936 1.712 10.4 0.199999 7.184 0.199999C3.992 0.199999 2.432 1.712 1.688 2.984C0.92 4.328 0.896 5.648 0.896 5.792V17H3.704V14.192H10.688V17H13.496V5.792C13.496 5.648 13.472 4.328 12.68 2.984ZM3.704 11.408V5.792C3.704 5.792 3.728 5.096 4.112 4.4C4.664 3.464 5.672 3.008 7.184 3.008C8.672 3.008 9.656 3.44 10.232 4.328C10.664 5.024 10.688 5.768 10.688 5.816V11.408H3.704ZM24.8708 0.199999H19.2788V3.008L21.9428 7.208H19.2788V17H22.0868V9.992H24.8708C24.8708 9.992 30.4628 9.992 30.4628 5.096C30.4628 0.199999 24.8708 0.199999 24.8708 0.199999ZM25.2308 7.184L22.6148 3.008H24.8708C24.8708 3.008 27.6788 3.008 27.6788 5.096C27.6788 6.728 25.9748 7.088 25.2308 7.184ZM38.055 2.912H45.687V0.199999H35.271V17H38.055V2.912ZM48.6674 0.199999L53.2034 11.768L51.2354 17H54.1154L60.6434 0.199999H57.6674L54.6914 8.168L51.8834 0.199999H48.6674ZM82.8693 0.175999H80.0133L73.8933 13.256L67.5093 0.175999H64.6533V17H67.4613V6.464L72.5973 17H75.2373L80.0613 6.68V17H82.8693V0.175999ZM99.8696 3.008V0.199999H88.6616V17H99.8696V14.192H91.4696V9.992H98.4536V7.208H91.4696V3.008H99.8696ZM114.611 0.199999V7.16H107.627V0.199999H104.819V17H107.627V9.992H114.611V17H117.419V0.199999H114.611ZM131.648 0.199999H121.808V2.768H125.336V17H128.12V2.768H131.648V0.199999Z" fill="#343235"/>
</svg>
